<?xml version="1.0" encoding="UTF-8" standalone="no"?>
<gpx
xmlns="http://www.topografix.com/GPX/1/1"
xmlns:xsi="http://www.w3.org/2001/XMLSchema-instance" 
xsi:schemaLocation="http://www.topografix.com/GPX/1/1 http://www.topografix.com/GPX/1/1/gpx.xsd"
version="1.1" 
creator="gpx-poi.com">
   <wpt lat="14.821067" lon="120.275468">
      <time>2015-04-04T01:34:58Z</time>
   </wpt>
</gpx>
